Demand Forecasting in Supply Chains: Aggregation and Hierarchical Approaches
…
    - 7 states
    - 27 zones
    - 75 regions
]

---

## Australian tourism data

```
#> # A tsibble: 18,000 x 5 [1M]
#> # Key:       state, zone, region [75]
#>      month state zone      region visitors
#>      <mth> <chr> <chr>     <chr>     <dbl>
#> 1 1998 Jan NSW   Metro NSW Sydney     926.
#> 2 1998 Feb NSW   Metro NSW Sydney     647.
#> 3 1998 Mar NSW   Metro NSW Sydney     716.
#> 4 1998 Apr NSW   Metro NSW Sydney     621.
#> 5 1998 May NSW   Metro NSW Sydney     598.
#> 6 1998 Jun NSW   Metro NSW Sydney     601.
#> # … with 17,994 more rows
```
…
